/* XPM */
static const char * playon_xpm[] = {
"24 24 2 1",
" 	c None",
".	c #27C450",
"                        ",
"                        ",
"                        ",
"                        ",
"     ..                 ",
"    ....                ",
"    .....               ",
"    ......              ",
"    .......             ",
"    .........           ",
"    ..........          ",
"    ...........         ",
"    ...........         ",
"    ...........         ",
"    ..........          ",
"    .........           ",
"    .......             ",
"    ......              ",
"    .....               ",
"    ....                ",
"     ..                 ",
"                        ",
"                        ",
"                        "};
